Analyse en composantes principales
…
# Introduction

--

## L'exemple des caractéristuqes du Doubs 

On a mesuré les caractéristiques physico chimiques sur 30  sites différents le long de la rivière Doubs. 

.pull-left[ Les 6 premières lignes (parmi 30) du jeu de données doubs.env

```
# A tibble: 30 × 11
    das   alt   pen   deb    pH   dur   pho   nit   amm   oxy   dbo
  <dbl> <int> <dbl> <dbl> <dbl> <int> <dbl> <dbl> <dbl> <dbl> <dbl>
1   0.3   934  48    0.84   7.9    45  0.01  0.2   0     12.2   2.7
2   2.2   932   3    1      8      40  0.02  0.2   0.1   10.3   1.9
3  10.2   914   3.7  1.8    8.3    52  0.05  0.22  0.05  10.5   3.5
4  18.5   854   3.2  2.53   8      72  0.1   0.21  0     11     1.3
5  21.5   849   2.3  2.64   8.1    84  0.38  0.52  0.2    8     6.2
6  32.4   846   3.2  2.86   7.9    60  0.2   0.15  0     10.2   5.3
# … with 24 more rows
```
…
--
<p class="question"> Comment visualiser au mieux ces données pour faire apparaître les liens entre variables et identifier des resemblances entre individus ?</p>

---
template: intro

## L'exemple des caractéristuqes du Doubs 

On a mesuré les caractéristiques morphologiques de divers manchots :

.pull-left[ Les 6 premières lignes (parmi 333 ) du jeu de données doubs.env
 
 ```
 # A tibble: 333 × 4
   bill_length_mm bill_depth_mm flipper_length_mm body_mass_g
            <dbl>         <dbl>             <int>       <int>
 1           39.1          18.7               181        3750
 2           39.5          17.4               186        3800
 3           40.3          18                 195        3250
 4           36.7          19.3               193        3450
 5           39.3          20.6               190        3650
 6           38.9          17.8               181        3625
 # … with 327 more rows
 ```
…
