Analyse de la variance
…
---

count: false

.panel1-var_est-user[

```r
*freqdata %>%  group_by(Activite)
```
]
 
.panel2-var_est-user[

```
# A tibble: 24 × 3
# Groups:   Activite [3]
  freqC Sexe  Activite
  <int> <chr> <chr>   
1    72 M     Natation
2    72 F     Natation
3    67 M     Natation
4    69 F     Natation
# … with 20 more rows
```
…
---
count: false

.panel1-var_est-user[

```r
freqdata %>%  group_by(Activite) %>%
* mutate(yhat =  mean(freqC))
```
]
 
.panel2-var_est-user[

```
# A tibble: 24 × 4
# Groups:   Activite [3]
  freqC Sexe  Activite  yhat
  <int> <chr> <chr>    <dbl>
1    72 M     Natation    70
2    72 F     Natation    70
3    67 M     Natation    70
4    69 F     Natation    70
# … with 20 more rows
```
…
.panel1-var_est-user[

```r
freqdata %>%  group_by(Activite) %>%
  mutate(yhat =  mean(freqC)) %>%
* mutate( Ehat = freqC-yhat,Ehat_2 = Ehat^2)
```
]
 
.panel2-var_est-user[

```
# A tibble: 24 × 6
# Groups:   Activite [3]
  freqC Sexe  Activite  yhat  Ehat Ehat_2
  <int> <chr> <chr>    <dbl> <dbl>  <dbl>
1    72 M     Natation    70     2      4
2    72 F     Natation    70     2      4
3    67 M     Natation    70    -3      9
4    69 F     Natation    70    -1      1
# … with 20 more rows
```
…
count: false

.panel1-rss-user[

```r
*freqdata %>% group_by(Activite) %>%
* mutate(m= mean(freqC))
```
]
 
.panel2-rss-user[

```
# A tibble: 24 × 4
# Groups:   Activite [3]
  freqC Sexe  Activite     m
  <int> <chr> <chr>    <dbl>
1    72 M     Natation    70
2    72 F     Natation    70
3    67 M     Natation    70
4    69 F     Natation    70
# … with 20 more rows
```
…
.panel1-rss-user[

```r
freqdata %>% group_by(Activite) %>%
  mutate(m= mean(freqC)) %>%
* mutate( Ehat = freqC - m)
```
]
 
.panel2-rss-user[

```
# A tibble: 24 × 5
# Groups:   Activite [3]
  freqC Sexe  Activite     m  Ehat
  <int> <chr> <chr>    <dbl> <dbl>
1    72 M     Natation    70     2
2    72 F     Natation    70     2
3    67 M     Natation    70    -3
4    69 F     Natation    70    -1
# … with 20 more rows
```
…
.panel1-rss-user[

```r
freqdata %>% group_by(Activite) %>%
  mutate(m= mean(freqC)) %>%
  mutate( Ehat = freqC - m) %>%
* mutate( E2hat = Ehat^2)
```
]
 
.panel2-rss-user[

```
# A tibble: 24 × 6
# Groups:   Activite [3]
  freqC Sexe  Activite     m  Ehat E2hat
  <int> <chr> <chr>    <dbl> <dbl> <dbl>
1    72 M     Natation    70     2     4
2    72 F     Natation    70     2     4
3    67 M     Natation    70    -3     9
4    69 F     Natation    70    -1     1
# … with 20 more rows
```
…
.panel1-rss-user[

```r
freqdata %>% group_by(Activite) %>%
  mutate(m= mean(freqC)) %>%
  mutate( Ehat = freqC - m) %>%
  mutate( E2hat = Ehat^2) %>%
* ungroup()
```
]
 
.panel2-rss-user[

```
# A tibble: 24 × 6
  freqC Sexe  Activite     m  Ehat E2hat
  <int> <chr> <chr>    <dbl> <dbl> <dbl>
1    72 M     Natation    70     2     4
2    72 F     Natation    70     2     4
3    67 M     Natation    70    -3     9
4    69 F     Natation    70    -1     1
# … with 20 more rows
```
…
