Analyse de la variance à 2 facteurs
…
---
template: model

## sur l'exemple de la fréquence cardiaque

.pull-left[
Les 10 premières lignes sont données par 

```
# A tibble: 24 × 4
   freqC Activite Sexe  Activite_Fact
   <int> <fct>    <chr> <fct>        
 1    72 Natation F     Natation     
 2    69 Natation F     Natation     
 3    73 Natation F     Natation     
 4    70 Natation F     Natation     
 5    72 Natation M     Natation     
 6    67 Natation M     Natation     
 7    71 Natation M     Natation     
 8    66 Natation M     Natation     
 9    71 Pilates  F     Pilates      
10    73 Pilates  F     Pilates      
# … with 14 more rows
```
…
