Régression linéaire
…
--

 `$${ \bf{\class{alea}{Y} = X\class{rouge}{\theta} + \class{alea}{E}}}$$`

---
template: model

## Exercice

Les données de pollution
.pull-left[

```
# A tibble: 41 × 3
  City            pop   SO2
  <chr>         <int> <int>
1 Phoenix         582    10
2 Little rock     132    13
3 San Francisco   716    12
4 Denver          515    17
# … with 37 more rows
```
…
- temp : Average temperature in Fahrenheit
- manuf : No. of companies employing more than 20 employees
- pop : Population in thousands
- wind : Average annual wind speed in miles/hour
- precip : annual precipitation height in inches
- days : No. of days of precipitation

]

--

.pull-right[

```
# A tibble: 41 × 8
  City            SO2  temp manuf   pop  wind precip  days
  <chr>         <int> <dbl> <int> <int> <dbl>  <dbl> <int>
1 Phoenix          10  70.3   213   582   6     7.05    36
2 Little rock      13  61      91   132   8.2  48.5    100
3 San Francisco    12  56.7   453   716   8.7  20.7     67
4 Denver           17  51.9   454   515   9    13.0     86
5 Hartford         56  49.1   412   158   9    43.4    127
# … with 36 more rows
```
…
